<?xml version="1.0" encoding="UTF-8" standalone="no"?>
<!-- Created with Inkscape (http://www.inkscape.org/) -->

<svg
   width="210mm"
   height="65mm"
   viewBox="0 0 210 65"
   version="1.1"
   id="svg5"
   inkscape:version="1.1.1 (3bf5ae0d25, 2021-09-20)"
   sodipodi:docname="discretionary-ligatures.svg"
   xmlns:inkscape="http://www.inkscape.org/namespaces/inkscape"
   xmlns:sodipodi="http://sodipodi.sourceforge.net/DTD/sodipodi-0.dtd"
   xmlns="http://www.w3.org/2000/svg"
   xmlns:svg="http://www.w3.org/2000/svg">
  <sodipodi:namedview
     id="namedview7"
     pagecolor="#ffffff"
     bordercolor="#666666"
     borderopacity="1.0"
     inkscape:pageshadow="2"
     inkscape:pageopacity="0.0"
     inkscape:pagecheckerboard="0"
     inkscape:document-units="mm"
     showgrid="false"
     inkscape:zoom="0.91591555"
     inkscape:cx="270.76732"
     inkscape:cy="312.80176"
     inkscape:window-width="1920"
     inkscape:window-height="1024"
     inkscape:window-x="0"
     inkscape:window-y="0"
     inkscape:window-maximized="1"
     inkscape:current-layer="layer6" />
  <defs
     id="defs2">
    <marker
       style="overflow:visible"
       id="marker21911"
       refX="0"
       refY="0"
       orient="auto"
       inkscape:stockid="Arrow1Mend"
       inkscape:isstock="true">
      <path
         transform="matrix(-0.4,0,0,-0.4,-4,0)"
         style="fill:context-stroke;fill-rule:evenodd;stroke:context-stroke;stroke-width:1pt"
         d="M 0,0 5,-5 -12.5,0 5,5 Z"
         id="path21909" />
    </marker>
    <marker
       style="overflow:visible"
       id="marker21782"
       refX="0"
       refY="0"
       orient="auto"
       inkscape:stockid="Arrow1Mend"
       inkscape:isstock="true">
      <path
         transform="matrix(-0.4,0,0,-0.4,-4,0)"
         style="fill:context-stroke;fill-rule:evenodd;stroke:context-stroke;stroke-width:1pt"
         d="M 0,0 5,-5 -12.5,0 5,5 Z"
         id="path21780" />
    </marker>
    <marker
       style="overflow:visible"
       id="Arrow1Mend"
       refX="0"
       refY="0"
       orient="auto"
       inkscape:stockid="Arrow1Mend"
       inkscape:isstock="true">
      <path
         transform="matrix(-0.4,0,0,-0.4,-4,0)"
         style="fill:context-stroke;fill-rule:evenodd;stroke:context-stroke;stroke-width:1pt"
         d="M 0,0 5,-5 -12.5,0 5,5 Z"
         id="path21487" />
    </marker>
  </defs>
  <g
     inkscape:groupmode="layer"
     id="layer6"
     inkscape:label="Layer 5">
    <rect
       style="fill:#fdfdfd;stroke-width:3.28924;fill-opacity:1"
       id="rect221995"
       width="210"
       height="65"
       x="0"
       y="-8.8817842e-16" />
  </g>
  <g
     inkscape:label="Layer 1"
     inkscape:groupmode="layer"
     id="layer1"
     sodipodi:insensitive="true">
    <g
       id="g4788">
      <path
         style="fill:none;fill-opacity:1;stroke:#b1f0ee;stroke-width:0.5;stroke-miterlimit:4;stroke-dasharray:none;stroke-opacity:1"
         d="M 11.895657,18.778496 H 193.50069"
         id="path899" />
      <path
         style="fill:none;fill-opacity:1;stroke:#b1f0ee;stroke-width:0.5;stroke-miterlimit:4;stroke-dasharray:2, 0.5;stroke-dashoffset:0;stroke-opacity:1"
         d="M 11.895657,28.183713 H 193.5007"
         id="path899-0" />
      <path
         style="fill:none;fill-opacity:1;stroke:#f6b7ab;stroke-width:0.5;stroke-miterlimit:4;stroke-dasharray:none;stroke-opacity:1"
         d="M 11.895657,38.130206 H 193.50069"
         id="path899-0-8" />
      <path
         style="fill:none;fill-opacity:1;stroke:#b1f0ee;stroke-width:0.5;stroke-miterlimit:4;stroke-dasharray:none;stroke-dashoffset:0;stroke-opacity:1"
         d="M 11.895657,47.785355 H 193.5007"
         id="path899-0-5" />
    </g>
  </g>
  <g
     inkscape:groupmode="layer"
     id="layer2"
     inkscape:label="Layer 2">
    <path
       style="fill:#818181;fill-opacity:1;stroke:none;stroke-width:0.499999"
       id="path5175"
       d="m 185.90613,46.691774 c -0.0652,-0.57709 -0.0816,-1.158727 -0.10202,-1.738759 -0.0339,-0.992878 -0.0401,-1.986426 -0.0468,-2.979777 0.002,-0.903391 -0.0193,-1.806028 -0.0488,-2.708826 -0.018,-0.817729 -0.0563,-1.634379 -0.0991,-2.451092 -0.0591,-0.769607 -0.11758,-1.539179 -0.16093,-2.30986 -0.0434,-0.778042 -0.0655,-1.557052 -0.0828,-2.336041 -0.0155,-0.646268 -0.0229,-1.292666 -0.0302,-1.939062 -0.005,-0.483492 -0.007,-0.967007 -0.008,-1.450522 0.007,-0.333021 -0.0163,-0.667338 0.009,-0.99967 -0.012,-0.07875 0.0156,-0.158613 0.008,-0.237408 -0.0708,-0.718664 -1.21691,0.347715 -1.97893,0.792384 -0.33264,0.426062 -0.63806,0.872572 -0.95387,1.311069 -0.49916,0.682445 -1.01074,1.355601 -1.51922,2.031119 -0.5028,0.694909 -1.04305,1.361173 -1.57247,2.035609 -0.42111,0.536874 -0.85578,1.06286 -1.29806,1.582372 -0.3211,0.376703 -0.66564,0.732364 -0.99732,1.099558 -0.26273,0.269605 -0.52592,0.539372 -0.79972,0.797695 -0.18463,0.198364 -0.39598,0.368641 -0.57124,0.575538 -0.0914,0.108481 -0.16366,0.22997 -0.23104,0.354129 0,0 1.81008,-0.803328 1.81008,-0.803328 v 0 c 0.0724,-0.111406 0.1498,-0.219454 0.24249,-0.31528 0.18629,-0.189704 0.38218,-0.369944 0.56738,-0.560819 0.26476,-0.264525 0.53202,-0.526847 0.78354,-0.80418 0.33164,-0.362299 0.66585,-0.722662 0.98024,-1.100209 0.43452,-0.519962 0.86056,-1.046898 1.27743,-1.581134 0.5266,-0.67328 1.05457,-1.345618 1.56071,-2.034564 0.51241,-0.680305 1.02879,-1.357617 1.53542,-2.042258 0.31966,-0.441211 0.62125,-0.911352 1.02187,-1.283658 -0.54228,0.30461 -1.06958,0.63757 -1.62683,0.913829 -0.0372,0.01844 -0.0187,-0.162936 -0.003,-0.124582 0.0352,0.08461 -0.0111,0.193807 0.005,0.279689 -0.008,0.334782 0.005,0.669681 0.007,1.004498 0.008,0.481018 0.0161,0.962025 0.0246,1.443027 0.0115,0.644845 0.0263,1.289651 0.0448,1.934334 0.0252,0.779873 0.05,1.559814 0.0894,2.339129 0.0449,0.770247 0.10342,1.539383 0.16192,2.30869 0.0456,0.814306 0.082,1.628799 0.10456,2.444107 0.0331,0.900026 0.0531,1.80013 0.0543,2.700827 0.0145,0.995498 0.0309,1.990982 0.0397,2.986553 0.009,0.589423 0.0254,1.178875 0.0337,1.768155 0,0 1.76887,-0.901282 1.76887,-0.901282 z" />
    <path
       style="fill:#818181;fill-opacity:1;stroke:none;stroke-width:0.499999"
       id="path5177"
       d="m 165.10892,28.61964 c 0.25354,0.255201 0.47002,0.543658 0.69909,0.820216 0.48404,0.57203 0.94397,1.163265 1.4006,1.757157 0.49753,0.651377 0.98934,1.306819 1.4599,1.977993 0.43207,0.610417 0.84215,1.23562 1.23942,1.869075 0.32821,0.565176 0.66482,1.125426 0.99566,1.689041 0.23338,0.391851 0.47836,0.77629 0.72776,1.158042 0.23039,0.342551 0.5611,0.573251 0.90631,0.786357 0.0592,0.03427 0.11838,0.06854 0.17758,0.102804 0,0 1.64118,-1.067551 1.64118,-1.067551 v 0 c -0.0582,-0.03234 -0.11642,-0.06469 -0.17463,-0.09703 -0.32264,-0.195564 -0.64177,-0.396804 -0.85824,-0.715685 -0.25324,-0.37574 -0.50462,-0.752594 -0.74217,-1.138594 -0.33857,-0.560981 -0.678,-1.121429 -1.01192,-1.685203 -0.40147,-0.634807 -0.8073,-1.266931 -1.24986,-1.874298 -0.47418,-0.672002 -0.96655,-1.330436 -1.46757,-1.982655 -0.45548,-0.595151 -0.90654,-1.193856 -1.3767,-1.777585 -0.22644,-0.284802 -0.43999,-0.579472 -0.66901,-0.862253 0,0 -1.6974,1.040167 -1.6974,1.040167 z" />
    <path
       style="fill:#818181;fill-opacity:1;stroke:none;stroke-width:0.499999"
       id="path5179"
       d="m 172.78466,28.451108 c -0.18102,0.424281 -0.4125,0.827953 -0.62458,1.237986 -0.38575,0.762196 -0.76143,1.529278 -1.13759,2.296215 -0.40078,0.821495 -0.82917,1.629201 -1.22885,2.451169 -0.47384,0.941785 -0.92041,1.895562 -1.34176,2.861813 -0.41713,0.970505 -0.80378,1.954069 -1.18615,2.938724 -0.31765,0.815428 -0.61701,1.637869 -0.9123,2.461612 -0.23817,0.697751 -0.46147,1.400649 -0.67736,2.105586 -0.20355,0.609066 -0.39464,1.22238 -0.6037,1.829594 -0.16961,0.483692 -0.33521,0.968332 -0.47761,1.460801 -0.076,0.23209 -0.14947,0.464961 -0.21973,0.69885 0,0 1.77731,-0.841857 1.77731,-0.841857 v 0 c 0.0681,-0.231846 0.13948,-0.462685 0.20736,-0.694592 0.14072,-0.487138 0.30524,-0.966354 0.4675,-1.446644 0.20054,-0.608534 0.3962,-1.218755 0.59064,-1.82925 0.21553,-0.700743 0.43433,-1.400706 0.67275,-2.094055 0.28942,-0.81925 0.58359,-1.636988 0.89552,-2.447972 0.37897,-0.980488 0.75908,-1.961272 1.17772,-2.92562 0.42762,-0.966396 0.88411,-1.918671 1.36141,-2.86158 0.40918,-0.818541 0.8306,-1.630955 1.23248,-2.45315 0.37877,-0.770359 0.75944,-1.539799 1.15935,-2.299489 0.22695,-0.417647 0.4475,-0.840401 0.6903,-1.248661 0,0 -1.82271,0.80052 -1.82271,0.80052 z" />
    <path
       style="fill:#000000;fill-opacity:1;stroke:none;stroke-width:0.499999"
       id="path5350"
       d="m 147.34778,47.963859 c -0.0842,-0.622588 -0.18044,-1.243414 -0.26325,-1.866207 -0.15413,-1.070954 -0.25847,-2.148035 -0.36501,-3.224495 -0.10781,-1.078577 -0.17435,-2.160397 -0.23043,-3.242678 -0.0479,-0.987054 -0.0776,-1.974823 -0.10121,-2.962711 -0.0214,-0.917504 -0.0318,-1.835198 -0.0417,-2.752881 -0.005,-0.800995 -0.0118,-1.601984 -0.013,-2.402997 1e-4,-0.627287 -5.3e-4,-1.254572 5.2e-4,-1.881859 -0.001,-0.441381 4e-5,-0.882317 0.0205,-1.323218 0.0181,-0.342122 0.0333,-0.684393 0.0518,-1.026496 -5.3e-4,-0.05175 0.005,-0.168506 -0.0167,-0.2231 -0.0153,-0.03884 -0.12302,-0.196582 -0.18313,-0.165957 -1.64474,0.837981 -1.37337,0.527611 -1.89128,1.183262 -0.389,0.486799 -0.71601,1.018648 -1.05501,1.540388 -0.45659,0.700561 -0.90035,1.409316 -1.34882,2.115061 -0.51284,0.803526 -1.01606,1.613061 -1.52966,2.416114 -0.58169,0.907738 -1.154,1.821357 -1.71648,2.741115 -0.53943,0.89436 -1.10359,1.77337 -1.65258,2.661811 -0.48479,0.786186 -1.00824,1.546953 -1.54827,2.295853 -0.42661,0.614895 -0.862,1.223399 -1.29708,1.832288 -0.37314,0.513931 -0.74566,1.028387 -1.10992,1.548667 -0.30724,0.439465 -0.60735,0.883454 -0.92735,1.31386 -0.23489,0.334481 -0.47467,0.665157 -0.68026,1.018775 -0.10101,0.172326 -0.18105,0.354965 -0.25569,0.539806 0,0 1.79145,-0.824556 1.79145,-0.824556 v 0 c 0.0771,-0.175252 0.16006,-0.347832 0.25967,-0.511667 0.209,-0.342043 0.44193,-0.668785 0.67382,-0.995532 0.31288,-0.432136 0.6081,-0.876337 0.91483,-1.312799 0.36462,-0.517329 0.73352,-1.0316 1.10409,-1.54468 0.43036,-0.605192 0.85367,-1.21513 1.27906,-1.82382 0.5354,-0.749895 1.0467,-1.516491 1.52929,-2.301584 0.55013,-0.885031 1.1035,-1.768044 1.64413,-2.658951 0.5667,-0.919544 1.13711,-1.836727 1.72674,-2.741822 0.51573,-0.806159 1.02335,-1.617419 1.54181,-2.42184 0.45123,-0.70653 0.8962,-1.417105 1.35855,-2.116489 0.3477,-0.524465 0.68354,-1.06276 1.10987,-1.528474 0.60804,-0.55852 -0.10542,0.114655 -1.49174,0.792395 -0.11047,0.05401 -5.3e-4,-0.131302 10e-4,-0.125743 0.0136,0.04422 0.01,0.149175 0.01,0.184632 -0.0109,0.340757 -0.0265,0.681312 -0.0422,1.021879 -0.0166,0.441039 -0.004,0.882113 -0.001,1.32334 0.006,0.624385 0.01,1.24878 0.0175,1.873146 0.008,0.79914 0.0129,1.59833 0.0264,2.397414 0.0118,0.917233 0.0274,1.834433 0.0501,2.751468 0.0264,0.988052 0.0565,1.976139 0.11212,2.963055 0.0594,1.083596 0.12964,2.166983 0.24135,3.246621 0.10655,1.079978 0.2079,2.160682 0.3519,3.236502 0.072,0.633762 0.15554,1.26719 0.18666,1.904693 0,0 1.75848,-0.921589 1.75848,-0.921589 z" />
    <path
       style="fill:#000000;fill-opacity:1;stroke:none;stroke-width:0.499999"
       id="path5352"
       d="m 139.79569,46.157464 c -0.0981,-0.357058 -0.20982,-0.710078 -0.32452,-1.06209 -0.1764,-0.559049 -0.40201,-1.099667 -0.64223,-1.633707 -0.29567,-0.655873 -0.6499,-1.283758 -1.01037,-1.905767 -0.41154,-0.704707 -0.82347,-1.409333 -1.24805,-2.106279 -0.36392,-0.60987 -0.73314,-1.216563 -1.10874,-1.81931 -0.29343,-0.482261 -0.58539,-0.965496 -0.85387,-1.462188 -0.21832,-0.380304 -0.40327,-0.777264 -0.56203,-1.185616 0,0 -1.71187,0.955823 -1.71187,0.955823 v 0 c 0.16891,0.412258 0.36215,0.813416 0.58638,1.198774 0.27476,0.497798 0.5703,0.983522 0.87137,1.465789 0.37998,0.59913 0.75247,1.202989 1.12278,1.808131 0.42444,0.695058 0.83473,1.398696 1.24302,2.103337 0.35245,0.619508 0.69788,1.244917 0.98556,1.897623 0.2352,0.528484 0.45269,1.065588 0.62164,1.619367 0.10575,0.349101 0.2164,0.699441 0.27346,1.060508 0,0 1.75747,-0.934395 1.75747,-0.934395 z" />
    <path
       style="fill:#808080;fill-opacity:1;stroke:none;stroke-width:0.499999"
       id="path5374"
       d="m 114.20018,47.1454 c -0.015,-0.311327 -0.0124,-0.623263 -0.0123,-0.934874 10e-4,-0.389106 -0.002,-0.778205 -0.004,-1.167307 -0.002,-0.540829 -0.007,-1.08164 -0.008,-1.622475 10e-4,-0.624851 -0.001,-1.249696 -0.001,-1.874552 2.6e-4,-0.641853 1e-5,-1.283705 -5.3e-4,-1.925558 -2.7e-4,-0.644641 10e-6,-1.28928 10e-4,-1.933922 -7.9e-4,-0.638534 -10e-4,-1.277072 -7.9e-4,-1.915609 -0.001,-0.678712 -0.002,-1.357413 -0.003,-2.036125 -0.009,-0.679463 0.008,-1.357995 0.0354,-2.03681 0.0263,-0.634095 0.0469,-1.26841 0.064,-1.902815 0.0133,-0.490299 0.0258,-0.98062 0.0376,-1.470956 0.007,-0.313238 0.0137,-0.626488 0.0187,-0.939768 -0.0253,-0.204814 0.058,-0.439833 -0.0212,-0.633061 -0.91427,-0.963715 -1.87501,0.968984 -2.24207,1.638086 -0.3045,0.577408 -0.64098,1.136054 -0.98337,1.691447 -0.38205,0.614008 -0.8052,1.200462 -1.23634,1.780529 -0.45722,0.613831 -0.93211,1.213683 -1.42096,1.802532 -0.43186,0.512868 -0.88745,1.0067 -1.36305,1.479301 -0.33293,0.353714 -0.68634,0.686726 -1.03822,1.021281 -0.25975,0.23848 -0.52147,0.47488 -0.77665,0.718275 -0.18179,0.168701 -0.37477,0.326803 -0.55053,0.501653 -0.1501,0.123304 -0.2727,0.274421 -0.40956,0.410877 -0.11644,0.127055 -0.19014,0.279892 -0.24999,0.439489 -0.008,0.02655 -0.0168,0.0531 -0.0251,0.07965 0,0 1.79805,-0.837327 1.79805,-0.837327 v 0 c 0.01,-0.02313 0.02,-0.04626 0.03,-0.06939 0.0711,-0.140108 0.16197,-0.266296 0.27629,-0.374976 0.12853,-0.141094 0.27063,-0.268806 0.40947,-0.399571 0.1834,-0.163272 0.36088,-0.333139 0.54246,-0.498427 0.2551,-0.237636 0.50911,-0.476451 0.76388,-0.714444 0.34699,-0.33315 0.68953,-0.670616 1.02026,-1.020032 0.46449,-0.479841 0.91738,-0.971773 1.34072,-1.488536 0.48607,-0.592529 0.95931,-1.195329 1.41556,-1.811202 0.43248,-0.586237 0.85795,-1.178221 1.23889,-1.799781 0.34348,-0.560787 0.67421,-1.128784 0.9938,-1.703562 0.0456,-0.07793 0.0908,-0.156101 0.13676,-0.233796 0.0485,-0.08185 0.15247,-0.257508 0.21184,-0.342199 0.0238,-0.03397 0.11372,-0.117152 0.0771,-0.09766 -1.70659,0.908452 -1.42482,1.52826 -1.69705,0.800396 0.005,0.184478 10e-4,0.369462 2.6e-4,0.554144 -0.002,0.310737 -0.003,0.621479 -0.006,0.932211 -0.004,0.48676 -0.01,0.973516 -0.0202,1.460188 -0.0149,0.632513 -0.0328,1.264939 -0.0583,1.897129 -0.0248,0.680535 -0.0398,1.361075 -0.0296,2.042131 -2.6e-4,0.679635 -0.002,1.35926 -0.003,2.038892 5.3e-4,0.638802 -1.2e-4,1.277602 -7.9e-4,1.916404 0.001,0.644194 0.002,1.28838 0.001,1.932574 -5.3e-4,0.642054 -8e-4,1.284108 -5.3e-4,1.926162 2.2e-4,0.625202 -0.002,1.250394 -10e-4,1.875597 -0.001,0.543602 -0.006,1.087183 -0.008,1.63078 -0.002,0.390358 -0.005,0.780711 -0.004,1.171075 1e-4,0.315807 0.002,0.63191 -0.0123,0.947444 0,0 1.77323,-0.903507 1.77323,-0.903507 z" />
    <path
       style="fill:#808080;fill-opacity:1;stroke:none;stroke-width:0.499999"
       id="path5376"
       d="m 102.66005,19.460857 c -0.0742,0.374571 -0.13054,0.752089 -0.20261,1.12708 -0.11241,0.6361 -0.25302,1.266413 -0.36006,1.903503 -0.14024,0.700681 -0.22503,1.409874 -0.29388,2.120547 -0.0719,0.756223 -0.11121,1.514913 -0.14265,2.27372 -0.0302,0.782047 -0.0474,1.564589 -0.0618,2.347076 -0.0118,0.788657 -0.0193,1.577372 -0.0267,2.366081 0.005,0.761238 -0.0295,1.521645 -0.0593,2.28209 -0.0271,0.711882 -0.045,1.424085 -0.0633,2.136243 -0.0148,0.553283 -0.023,1.106715 -0.0367,1.660025 -0.009,0.29278 -0.0135,0.58566 -0.0242,0.878385 0.023,0.13589 -0.11662,0.06849 -0.0845,0.04968 2.44613,-1.433959 2.09185,-0.411744 1.64931,-1.018521 -0.13965,-0.217427 -0.25957,-0.446468 -0.38448,-0.672446 -0.13606,-0.25867 -0.27017,-0.518385 -0.42033,-0.769245 -0.13859,-0.235299 -0.28436,-0.466725 -0.44664,-0.686435 -0.18896,-0.229563 -0.37036,-0.464542 -0.54514,-0.705051 -0.18558,-0.256677 -0.38184,-0.504933 -0.57627,-0.754816 -0.19026,-0.266311 -0.39617,-0.520846 -0.588237,-0.785784 -0.18726,-0.251822 -0.36344,-0.511672 -0.551357,-0.762965 -0.16111,-0.212511 -0.30774,-0.435335 -0.46534,-0.650354 -0.140127,-0.196752 -0.279007,-0.393925 -0.423287,-0.58764 -0.144567,-0.197879 -0.291789,-0.393795 -0.437725,-0.59069 -0.11793,-0.178244 -0.238578,-0.354497 -0.36639,-0.525814 -0.109688,-0.155776 -0.230259,-0.303364 -0.341749,-0.457801 -0.119584,-0.155533 -0.238654,-0.31156 -0.377634,-0.450376 -0.143481,-0.148106 -0.306491,-0.274402 -0.474002,-0.393772 -0.120959,-0.08315 -0.25206,-0.149653 -0.38214,-0.21699 0,0 -1.652177,1.086676 -1.652177,1.086676 v 0 c 0.124375,0.06045 0.247676,0.123772 0.36685,0.193952 0.162346,0.108704 0.318405,0.228479 0.455252,0.368433 0.136634,0.12456 0.243745,0.275233 0.358974,0.419028 0.111731,0.156467 0.233487,0.305115 0.344974,0.461741 0.129956,0.168986 0.250196,0.345011 0.368395,0.522366 0.14617,0.196885 0.296929,0.390274 0.438799,0.590344 0.144042,0.193945 0.283241,0.390819 0.423621,0.587497 0.16124,0.213288 0.307473,0.437377 0.470117,0.649687 0.190773,0.247525 0.366488,0.506206 0.552032,0.757653 0.193593,0.266562 0.403343,0.520827 0.590533,0.792077 0.192997,0.248135 0.390767,0.492356 0.572527,0.749113 0.174187,0.241583 0.354467,0.478184 0.543254,0.708583 0.15915,0.21463 0.30136,0.440801 0.43731,0.670774 0.15143,0.246848 0.28411,0.50415 0.41794,0.760831 0.12626,0.232108 0.25025,0.465441 0.38185,0.6946 0.50339,0.796017 2.01754,-0.114282 1.9118,-0.931 -0.002,-0.288624 -2.6e-4,-0.577244 -7.9e-4,-0.865873 0.002,-0.549643 0.009,-1.099235 0.0179,-1.648804 0.0125,-0.710023 0.03,-1.41995 0.0569,-2.129589 0.0272,-0.761727 0.0599,-1.523449 0.0542,-2.285875 0.005,-0.788102 0.012,-1.576203 0.0274,-2.36418 0.0145,-0.781187 0.0303,-1.562391 0.0644,-2.343029 0.0343,-0.755769 0.0751,-1.511519 0.14902,-2.264628 0.0743,-0.707906 0.17034,-1.412894 0.3068,-2.111813 0.11302,-0.637767 0.25209,-1.270133 0.37547,-1.905916 0.0777,-0.385133 0.14629,-0.772105 0.23995,-1.15382 0,0 -1.78631,0.875442 -1.78631,0.875442 z" />
    <path
       style="fill:#000000;fill-opacity:1;stroke:none;stroke-width:0.499999"
       id="path5378"
       d="m 83.993362,47.467205 c -0.06199,-0.515253 -0.105134,-1.032468 -0.140665,-1.550199 -0.05191,-0.844254 -0.07449,-1.689865 -0.0955,-2.535325 -0.01924,-0.850122 -0.03234,-1.700356 -0.04334,-2.550618 -0.01061,-0.91944 -0.01609,-1.838928 -0.01818,-2.758427 5.29e-4,-0.825383 -0.0021,-1.650759 -0.0021,-2.476142 0.0021,-0.736809 -2.38e-4,-1.473618 -2.65e-4,-2.210433 5.3e-4,-0.667975 0.0024,-1.335947 0.0032,-2.003922 0.0024,-0.559451 0.0024,-1.118902 0.0049,-1.678355 7.94e-4,-0.467485 0.0013,-0.934969 0.0037,-1.402451 -0.01027,-0.32766 -0.03687,-0.654513 -0.05915,-0.981506 -0.01828,-0.105447 -0.0011,-0.217104 -0.01979,-0.322334 -0.120388,-0.672606 -1.59961,0.668708 -1.876716,0.823598 -0.166978,0.346585 -0.35251,0.686615 -0.516361,1.036769 -0.283734,0.566836 -0.556781,1.139227 -0.843518,1.70456 -0.316539,0.635564 -0.633497,1.270921 -0.950542,1.906236 -0.296182,0.587382 -0.584941,1.179446 -0.905981,1.753753 -0.268105,0.480584 -0.536022,0.96061 -0.839472,1.419966 -0.272574,0.390909 -0.535697,0.788667 -0.818931,1.171985 -0.23836,0.291767 -0.490474,0.573418 -0.761254,0.835485 -0.510418,0.464736 -1.487604,0.954916 1.316019,-0.720053 0.03227,-0.01929 -0.06601,0.03719 -0.101952,0.04823 -0.09623,0.02954 -0.112786,0.01032 -0.208557,-0.0149 -0.312801,-0.20189 -0.49987,-0.542962 -0.692394,-0.851699 -0.226433,-0.374404 -0.430339,-0.761558 -0.639061,-1.145903 -0.195596,-0.358102 -0.384593,-0.719936 -0.568066,-1.084413 -0.182846,-0.374422 -0.381452,-0.740614 -0.573643,-1.110234 -0.210804,-0.394882 -0.422346,-0.789392 -0.635836,-1.182851 -0.219755,-0.391764 -0.433898,-0.78654 -0.633825,-1.188789 -0.21512,-0.433766 -0.436198,-0.864447 -0.66344,-1.291979 -0.205502,-0.382627 -0.403604,-0.769083 -0.608177,-1.15221 -0.147812,-0.263734 -0.294336,-0.528841 -0.470384,-0.775012 -0.127124,-0.188209 -0.282009,-0.355743 -0.454718,-0.502584 -0.07737,-0.06773 -0.161412,-0.12627 -0.24669,-0.18333 0,0 -1.664285,1.071599 -1.664285,1.071599 v 0 c 0.08248,0.04854 0.163547,0.09881 0.234905,0.163375 0.167389,0.127416 0.311709,0.284028 0.431954,0.456549 0.17667,0.23489 0.320183,0.492049 0.468969,0.745022 0.209364,0.380021 0.411773,0.763611 0.615449,1.146718 0.228524,0.424582 0.449639,0.852797 0.659829,1.286764 0.19899,0.405423 0.414798,0.802031 0.636357,1.195559 0.211545,0.39333 0.425331,0.785508 0.632116,1.181346 0.191712,0.369303 0.388972,0.735629 0.568844,1.110954 0.187108,0.364741 0.378796,0.727183 0.574077,1.087609 0.212159,0.386757 0.422349,0.774615 0.644496,1.155795 0.214492,0.344406 0.426617,0.700397 0.743119,0.962502 0.878335,0.478671 1.785414,-0.542153 2.447362,-1.159243 0.26277,-0.273656 0.520575,-0.553916 0.743291,-0.861751 0.273087,-0.389199 0.542271,-0.781129 0.805944,-1.176779 0.295432,-0.464717 0.558544,-0.948015 0.825252,-1.429591 0.30934,-0.579668 0.601644,-1.168318 0.894381,-1.756508 0.316315,-0.635746 0.631693,-1.271974 0.951921,-1.905762 0.287332,-0.571939 0.570656,-1.145892 0.860361,-1.716649 0.165661,-0.338291 0.328385,-0.704498 0.584097,-0.98322 -0.565211,0.307228 -1.115015,0.644673 -1.695632,0.921681 -0.03076,0.01468 -0.02297,-0.06417 -0.03455,-0.09622 -0.0021,-0.0061 0.0054,0.01193 0.0064,0.01834 0.0042,0.02705 0.0064,0.05438 0.0089,0.08162 0.005,0.05267 0.01532,0.185375 0.01921,0.234585 0.02651,0.319968 0.05804,0.63981 0.0669,0.960916 0.0026,0.466135 0.0031,0.932275 0.0043,1.398416 0.0028,0.557598 0.0033,1.1152 0.0061,1.672801 0.0016,0.666451 0.0041,1.332897 0.006,1.999345 0.0013,0.73591 7.94e-4,1.471824 0.0062,2.207721 0.0037,0.823677 0.0055,1.647359 0.0132,2.471012 0.0062,0.919986 0.01005,1.839989 0.01773,2.759967 0.0071,0.851934 0.01603,1.703906 0.04011,2.555563 0.02307,0.848526 0.05004,1.697021 0.09057,2.544915 0.02619,0.53248 0.06401,1.0642 0.08861,1.596713 0,0 1.758349,-0.928576 1.758349,-0.928576 z" />
  </g>
  <g
     inkscape:groupmode="layer"
     id="layer3"
     inkscape:label="Layer 3">
    <text
       xml:space="preserve"
       style="font-style:normal;font-weight:normal;font-size:10.5833px;line-height:1.25;font-family:sans-serif;letter-spacing:0px;word-spacing:0px;fill:#000000;fill-opacity:1;stroke:none;stroke-width:0.264583"
       x="136.17645"
       y="16.700987"
       id="text8863"><tspan
         sodipodi:role="line"
         id="tspan8861"
         style="font-style:normal;font-variant:normal;font-weight:normal;font-stretch:normal;font-size:8.46667px;font-family:Cantarell;-inkscape-font-specification:'Cantarell, Normal';font-variant-ligatures:normal;font-variant-caps:normal;font-variant-numeric:normal;font-variant-east-asian:normal;fill:#000000;fill-opacity:1;stroke-width:0.264583"
         x="136.17645"
         y="16.700987">ra</tspan></text>
    <text
       xml:space="preserve"
       style="font-style:normal;font-weight:normal;font-size:10.5833px;line-height:1.25;font-family:sans-serif;letter-spacing:0px;word-spacing:0px;fill:#000000;fill-opacity:1;stroke:none;stroke-width:0.264583"
       x="73.231636"
       y="16.484121"
       id="text8863-3"><tspan
         sodipodi:role="line"
         id="tspan8861-6"
         style="font-style:normal;font-variant:normal;font-weight:normal;font-stretch:normal;font-size:8.46667px;font-family:Cantarell;-inkscape-font-specification:'Cantarell, Normal';font-variant-ligatures:normal;font-variant-caps:normal;font-variant-numeric:normal;font-variant-east-asian:normal;fill:#000000;fill-opacity:1;stroke-width:0.264583"
         x="73.231636"
         y="16.484121">ro</tspan></text>
  </g>
  <g
     inkscape:groupmode="layer"
     id="layer4"
     inkscape:label="Layer 4">
    <path
       style="fill:none;fill-opacity:1;stroke:#60e155;stroke-width:0.5;stroke-miterlimit:4;stroke-dasharray:none;stroke-opacity:1;marker-end:url(#Arrow1Mend)"
       d="M 149.18675,32.02859 V 21.624963 l -7.3659,6.382863"
       id="path20255" />
    <path
       style="fill:none;fill-opacity:1;stroke:#60e155;stroke-width:0.499999;stroke-miterlimit:4;stroke-dasharray:none;stroke-opacity:1;marker-end:url(#marker21782)"
       d="m 138.67331,51.070655 -2.49054,-4.988499"
       id="path21778" />
    <path
       style="fill:none;fill-opacity:1;stroke:#60e155;stroke-width:0.499999;stroke-miterlimit:4;stroke-dasharray:none;stroke-opacity:1;marker-end:url(#marker21911)"
       d="M 85.986632,31.800662 V 21.61067"
       id="path21825" />
    <path
       style="fill:none;fill-opacity:1;stroke:#60e155;stroke-width:0.499999;stroke-miterlimit:4;stroke-dasharray:none;stroke-opacity:1;marker-end:url(#marker21911)"
       d="m 80.082643,25.860954 -2.768222,5.461881 -2.666658,-5.483061"
       id="path21827" />
    <text
       xml:space="preserve"
       style="font-style:normal;font-weight:normal;font-size:3.52778px;line-height:1.25;font-family:sans-serif;letter-spacing:0px;word-spacing:0px;fill:#60e155;fill-opacity:1;stroke:none;stroke-width:0.264583;stroke-opacity:1"
       x="150.34998"
       y="32.535988"
       id="text24276"><tspan
         sodipodi:role="line"
         id="tspan24274"
         style="font-style:normal;font-variant:normal;font-weight:normal;font-stretch:normal;font-size:3.52778px;font-family:Cantarell;-inkscape-font-specification:Cantarell;fill:#60e155;fill-opacity:1;stroke:none;stroke-width:0.264583;stroke-opacity:1"
         x="150.34998"
         y="32.535988">1</tspan></text>
    <text
       xml:space="preserve"
       style="font-style:normal;font-weight:normal;font-size:3.52778px;line-height:1.25;font-family:sans-serif;letter-spacing:0px;word-spacing:0px;fill:#60e155;fill-opacity:1;stroke:none;stroke-width:0.264583;stroke-opacity:1"
       x="139.62314"
       y="52.35601"
       id="text24276-6"><tspan
         sodipodi:role="line"
         id="tspan24274-3"
         style="font-style:normal;font-variant:normal;font-weight:normal;font-stretch:normal;font-size:3.52778px;font-family:Cantarell;-inkscape-font-specification:Cantarell;fill:#60e155;fill-opacity:1;stroke:none;stroke-width:0.264583;stroke-opacity:1"
         x="139.62314"
         y="52.35601">2</tspan></text>
    <text
       xml:space="preserve"
       style="font-style:normal;font-weight:normal;font-size:3.52778px;line-height:1.25;font-family:sans-serif;letter-spacing:0px;word-spacing:0px;fill:#60e155;fill-opacity:1;stroke:none;stroke-width:0.264583;stroke-opacity:1"
       x="87.712997"
       y="32.945065"
       id="text24276-0"><tspan
         sodipodi:role="line"
         id="tspan24274-2"
         style="font-style:normal;font-variant:normal;font-weight:normal;font-stretch:normal;font-size:3.52778px;font-family:Cantarell;-inkscape-font-specification:Cantarell;fill:#60e155;fill-opacity:1;stroke:none;stroke-width:0.264583;stroke-opacity:1"
         x="87.712997"
         y="32.945065">1a</tspan></text>
    <text
       xml:space="preserve"
       style="font-style:normal;font-weight:normal;font-size:3.52778px;line-height:1.25;font-family:sans-serif;letter-spacing:0px;word-spacing:0px;fill:#60e155;fill-opacity:1;stroke:none;stroke-width:0.264583;stroke-opacity:1"
       x="78.136009"
       y="24.943975"
       id="text24276-1"><tspan
         sodipodi:role="line"
         id="tspan24274-5"
         style="font-style:normal;font-variant:normal;font-weight:normal;font-stretch:normal;font-size:3.52778px;font-family:Cantarell;-inkscape-font-specification:Cantarell;fill:#60e155;fill-opacity:1;stroke:none;stroke-width:0.264583;stroke-opacity:1"
         x="78.136009"
         y="24.943975">1b</tspan></text>
  </g>
</svg>
